<svg xmlns="http://www.w3.org/2000/svg" width="18" height="13" viewBox="0 0 18 13">
  <metadata><?xpacket begin="﻿" id="W5M0MpCehiHzreSzNTczkc9d"?>
<x:xmpmeta xmlns:x="adobe:ns:meta/" x:xmptk="Adobe XMP Core 5.6-c142 79.160924, 2017/07/13-01:06:39        ">
   <rdf:RDF xmlns:rdf="http://www.w3.org/1999/02/22-rdf-syntax-ns#">
      <rdf:Description rdf:about=""/>
   </rdf:RDF>
</x:xmpmeta>
                                                                                                    
                                                                                                    
                                                                                                    
                                                                                                    
                                                                                                    
                                                                                                    
                                                                                                    
                                                                                                    
                                                                                                    
                                                                                                    
                                                                                                    
                                                                                                    
                                                                                                    
                                                                                                    
                                                                                                    
                                                                                                    
                                                                                                    
                                                                                                    
                                                                                                    
                                                                                                    
                           
<?xpacket end="w"?></metadata>
<defs>
    <style>
      .cls-1 {
        fill: #b5ff3d;
        fill-rule: evenodd;
      }
    </style>
  </defs>
  <path id="mail" class="cls-1" d="M5340.04,1937h-14.08a1.891,1.891,0,0,1-1.96-1.81v-9.38a1.891,1.891,0,0,1,1.96-1.81h14.08a1.891,1.891,0,0,1,1.96,1.81v9.38A1.891,1.891,0,0,1,5340.04,1937Zm0.65-11.19a0.627,0.627,0,0,0-.65-0.6h-14.08a0.627,0.627,0,0,0-.65.6v9.38a0.627,0.627,0,0,0,.65.6h14.08a0.627,0.627,0,0,0,.65-0.6v-9.38Zm-6.34,5.16a1.875,1.875,0,0,1-1.21.42,1.9,1.9,0,0,1-1.18-.39l-6.21-4.96a0.276,0.276,0,0,1-.03-0.42,0.35,0.35,0,0,1,.46-0.04l6.21,4.96a1.275,1.275,0,0,0,1.52-.02l5.91-4.93a0.35,0.35,0,0,1,.46.02,0.294,0.294,0,0,1-.02.43Z" transform="translate(-5324 -1924)"/>
</svg>
