<svg xmlns="http://www.w3.org/2000/svg" width="10.34" height="9.12" viewBox="0 0 10.34 9.12">
  <metadata><?xpacket begin="﻿" id="W5M0MpCehiHzreSzNTczkc9d"?>
<x:xmpmeta xmlns:x="adobe:ns:meta/" x:xmptk="Adobe XMP Core 5.6-c142 79.160924, 2017/07/13-01:06:39        ">
   <rdf:RDF xmlns:rdf="http://www.w3.org/1999/02/22-rdf-syntax-ns#">
      <rdf:Description rdf:about=""/>
   </rdf:RDF>
</x:xmpmeta>
                                                                                                    
                                                                                                    
                                                                                                    
                                                                                                    
                                                                                                    
                                                                                                    
                                                                                                    
                                                                                                    
                                                                                                    
                                                                                                    
                                                                                                    
                                                                                                    
                                                                                                    
                                                                                                    
                                                                                                    
                                                                                                    
                                                                                                    
                                                                                                    
                                                                                                    
                                                                                                    
                           
<?xpacket end="w"?></metadata>
<defs>
    <style>
      .cls-1 {
        fill: #1e3662;
        fill-rule: evenodd;
      }
    </style>
  </defs>
  <path id="step-done" class="cls-1" d="M2761.77,2006a1.014,1.014,0,0,1-.73-0.31l-2.6-2.77a1.023,1.023,0,0,1,.03-1.44,1,1,0,0,1,1.42.03l1.83,1.94,5.03-6.21a1,1,0,0,1,1.42-.14,1.025,1.025,0,0,1,.14,1.43l-5.76,7.1a0.974,0.974,0,0,1-.74.37h-0.04Z" transform="translate(-2758.19 -1996.88)"/>
</svg>
