<svg xmlns="http://www.w3.org/2000/svg" width="12" height="12" viewBox="0 0 12 12">
  <defs>
    <style>
      .cls-1 {
        fill: #fff;
        fill-rule: evenodd;
      }
    </style>
  </defs>
  <path id="close" class="cls-1" d="M704.414,35l4.293,4.293a1,1,0,1,1-1.414,1.414L703,36.413l-4.293,4.293a1,1,0,0,1-1.414-1.414L701.586,35l-4.293-4.294a1,1,0,0,1,1.414-1.413L703,33.586l4.293-4.293a1,1,0,1,1,1.414,1.413Z" transform="translate(-697 -29)"/>
</svg>
