<svg id="ICON-OK" xmlns="http://www.w3.org/2000/svg" width="22" height="22" viewBox="0 0 22 22">
  <metadata><?xpacket begin="﻿" id="W5M0MpCehiHzreSzNTczkc9d"?>
<x:xmpmeta xmlns:x="adobe:ns:meta/" x:xmptk="Adobe XMP Core 5.6-c142 79.160924, 2017/07/13-01:06:39        ">
   <rdf:RDF xmlns:rdf="http://www.w3.org/1999/02/22-rdf-syntax-ns#">
      <rdf:Description rdf:about=""/>
   </rdf:RDF>
</x:xmpmeta>
                                                                                                    
                                                                                                    
                                                                                                    
                                                                                                    
                                                                                                    
                                                                                                    
                                                                                                    
                                                                                                    
                                                                                                    
                                                                                                    
                                                                                                    
                                                                                                    
                                                                                                    
                                                                                                    
                                                                                                    
                                                                                                    
                                                                                                    
                                                                                                    
                                                                                                    
                                                                                                    
                           
<?xpacket end="w"?></metadata>
<defs>
    <style>
      .cls-1 {
        fill: #b5ff3d;
      }

      .cls-2 {
        fill: #1e3662;
        fill-rule: evenodd;
      }
    </style>
  </defs>
  <circle class="cls-1" cx="11" cy="11" r="11"/>
  <path id="icon-ok-2" data-name="icon-ok" class="cls-2" d="M459.9,41.4a0.9,0.9,0,0,1-.671-0.3l-2.405-2.672a1.022,1.022,0,0,1,.033-1.387,0.891,0.891,0,0,1,1.311.034l1.682,1.869,4.64-5.991a0.9,0.9,0,0,1,1.306-.137,1.022,1.022,0,0,1,.128,1.382l-5.307,6.849a0.91,0.91,0,0,1-.682.358H459.9Z" transform="translate(-450 -26)"/>
</svg>
