<svg xmlns="http://www.w3.org/2000/svg" width="17" height="17" viewBox="0 0 17 17">
  <metadata><?xpacket begin="﻿" id="W5M0MpCehiHzreSzNTczkc9d"?>
<x:xmpmeta xmlns:x="adobe:ns:meta/" x:xmptk="Adobe XMP Core 5.6-c142 79.160924, 2017/07/13-01:06:39        ">
   <rdf:RDF xmlns:rdf="http://www.w3.org/1999/02/22-rdf-syntax-ns#">
      <rdf:Description rdf:about=""/>
   </rdf:RDF>
</x:xmpmeta>
                                                                                                    
                                                                                                    
                                                                                                    
                                                                                                    
                                                                                                    
                                                                                                    
                                                                                                    
                                                                                                    
                                                                                                    
                                                                                                    
                                                                                                    
                                                                                                    
                                                                                                    
                                                                                                    
                                                                                                    
                                                                                                    
                                                                                                    
                                                                                                    
                                                                                                    
                                                                                                    
                           
<?xpacket end="w"?></metadata>
<defs>
    <style>
      .cls-1 {
        fill: #1e3662;
        fill-rule: evenodd;
      }
    </style>
  </defs>
  <path id="info-circle" class="cls-1" d="M4994.5,2400a8.5,8.5,0,1,0,8.5,8.5A8.506,8.506,0,0,0,4994.5,2400Zm0,15.94a7.44,7.44,0,1,1,7.44-7.44A7.452,7.452,0,0,1,4994.5,2415.94Zm0-10.1a0.534,0.534,0,0,0-.53.53v6.38a0.53,0.53,0,1,0,1.06,0v-6.38A0.534,0.534,0,0,0,4994.5,2405.84Zm0-2.12a0.538,0.538,0,0,0-.38.91,0.578,0.578,0,0,0,.76,0A0.53,0.53,0,0,0,4994.5,2403.72Z" transform="translate(-4986 -2400)"/>
</svg>
