<svg id="usp-package" xmlns="http://www.w3.org/2000/svg" width="24" height="24" viewBox="0 0 24 24">
  <metadata><?xpacket begin="﻿" id="W5M0MpCehiHzreSzNTczkc9d"?>
<x:xmpmeta xmlns:x="adobe:ns:meta/" x:xmptk="Adobe XMP Core 5.6-c142 79.160924, 2017/07/13-01:06:39        ">
   <rdf:RDF xmlns:rdf="http://www.w3.org/1999/02/22-rdf-syntax-ns#">
      <rdf:Description rdf:about=""/>
   </rdf:RDF>
</x:xmpmeta>
                                                                                                    
                                                                                                    
                                                                                                    
                                                                                                    
                                                                                                    
                                                                                                    
                                                                                                    
                                                                                                    
                                                                                                    
                                                                                                    
                                                                                                    
                                                                                                    
                                                                                                    
                                                                                                    
                                                                                                    
                                                                                                    
                                                                                                    
                                                                                                    
                                                                                                    
                                                                                                    
                           
<?xpacket end="w"?></metadata>
<defs>
    <style>
      .cls-1, .cls-2 {
        fill: #b5ff3d;
      }

      .cls-1 {
        fill-rule: evenodd;
      }
    </style>
  </defs>
  <path class="cls-1" d="M420.684,1439.94a10.291,10.291,0,0,0-.862-1.3l-2.019-2.59a2.911,2.911,0,0,0-2.137-1.05H402.333a2.934,2.934,0,0,0-2.136,1.04l-2.021,2.6a10.372,10.372,0,0,0-.86,1.3,4.5,4.5,0,0,0-.316,1.73v15.55a1.782,1.782,0,0,0,1.778,1.78h20.444a1.782,1.782,0,0,0,1.778-1.78v-15.55A4.5,4.5,0,0,0,420.684,1439.94Zm-4.284-2.8,2.019,2.59c0.149,0.19.3,0.41,0.43,0.6h-7.627v-3.55h4.444A1.213,1.213,0,0,1,416.4,1437.14Zm-8.734-.36h2.667v7.11a0.444,0.444,0,0,1-.444.44h-1.778a0.445,0.445,0,0,1-.445-0.44v-7.11Zm-6.065.36a1.205,1.205,0,0,1,.732-0.36h4.445v3.55H399.15c0.127-.19.282-0.41,0.43-0.6Zm17.619,20.08H398.778v-15.55a3.936,3.936,0,0,1,.028-0.45h7.972v2.67a1.335,1.335,0,0,0,1.333,1.33h1.778a1.335,1.335,0,0,0,1.333-1.33v-2.67h7.971a3.714,3.714,0,0,1,.029.45Z" transform="translate(-397 -1435)"/>
  <rect class="cls-2" x="5" y="19" width="14" height="1"/>
  <path id="_24h" data-name="24h" class="cls-1" d="M402.249,1453.01h3.334a0.169,0.169,0,0,0,.195-0.19v-0.66a0.169,0.169,0,0,0-.195-0.19H403.37v-0.15a0.283,0.283,0,0,1,.111-0.22l1.741-1.5a1.494,1.494,0,0,0,.556-1.2v-0.37a1.491,1.491,0,0,0-.4-1.12,1.546,1.546,0,0,0-1.129-.39h-0.7a1.55,1.55,0,0,0-1.13.39,1.494,1.494,0,0,0-.4,1.12v0.31a0.179,0.179,0,0,0,.195.21H403a0.179,0.179,0,0,0,.194-0.21v-0.29a0.6,0.6,0,0,1,.121-0.42,0.58,0.58,0,0,1,.417-0.12h0.324a0.654,0.654,0,0,1,.44.12,0.561,0.561,0,0,1,.134.42v0.28a0.976,0.976,0,0,1-.417.74l-1.7,1.46a1.131,1.131,0,0,0-.454.9v0.89a0.169,0.169,0,0,0,.2.19h0Zm5.279-2.11,1.5-2.88v2.88h-1.5Zm2.562,2.07a0.222,0.222,0,0,0,.041-0.15v-0.9H410.8a0.175,0.175,0,0,0,.185-0.21v-0.63a0.161,0.161,0,0,0-.185-0.18h-0.667v-3.54a0.333,0.333,0,0,0-.1-0.25,0.361,0.361,0,0,0-.255-0.09h-1.046a0.389,0.389,0,0,0-.237.06,0.674,0.674,0,0,0-.171.23l-1.843,3.45a0.946,0.946,0,0,0-.093.45v0.37a0.316,0.316,0,0,0,.343.34h2.3v0.9a0.169,0.169,0,0,0,.194.19h0.723A0.191,0.191,0,0,0,410.09,1452.97Zm2.94-.15v-2.19a0.1,0.1,0,0,1,.112-0.1h1.565a0.092,0.092,0,0,1,.1.1v2.19a0.169,0.169,0,0,0,.194.19h0.788a0.169,0.169,0,0,0,.194-0.19v-5.61a0.169,0.169,0,0,0-.194-0.19H415a0.169,0.169,0,0,0-.194.19v2.19a0.1,0.1,0,0,1-.1.11h-1.565a0.1,0.1,0,0,1-.112-0.11v-2.19a0.168,0.168,0,0,0-.194-0.19h-0.787a0.169,0.169,0,0,0-.195.19v5.61a0.169,0.169,0,0,0,.195.19h0.787a0.168,0.168,0,0,0,.194-0.19h0Z" transform="translate(-397 -1435)"/>
</svg>
